  [
    {
      "id": 0,
      "title": "Title 1",
      "date_created": "22-09-2017",
      "duration": 22,
      "description": "Lorem ipsum dolor sit amet, consectetur adipiscing elit"
    },
    {
      "id": 1,
      "title": "Title 2",
      "date_created": "22-09-2017",
      "duration": 24,
      "description": "Lorem ipsum dolor sit amet, consectetur adipiscing elit"
    },
    {
      "id": 2,
      "title": "Title 3",
      "date_created": "22-09-2017",
      "duration": 45,
      "description": "Lorem ipsum dolor sit amet, consectetur adipiscing elit"
    },
    {
      "id": 3,
      "title": "Title 4",
      "date_created": "22-09-2017",
      "duration": 224,
      "description": "Lorem ipsum dolor sit amet, consectetur adipiscing elit"
    },
    {
      "id": 4,
      "title": "Title 5",
      "date_created": "22-09-2017",
      "duration": 254,
      "description": "Lorem ipsum dolor sit amet, consectetur adipiscing elit"
    }
  ]
